[
    {
    "qtimedt": "977646139",
    "seat_name": "10A",
    "seat_dspnm": "-",
    "seat_desnm": "-",
    "seat_srcnm": null,
    "seat_ticket": "0",
    "seat_typeid": "0",
    "seat_typenm": "0",
    "seat_lock": "0",
    "seat_ladyseat": "0",
    "seat_ratetype": null,
    "seat_ratetypevar": null,
    "seat_binalypic": null,
    "seat_remark": "",
    "bustype_var": "FIR",
    "food": null
    },
    {
    "qtimedt": "977646139",
    "seat_name": "10C",
    "seat_dspnm": "-",
    "seat_desnm": "-",
    "seat_srcnm": null,
    "seat_ticket": "0",
    "seat_typeid": "0",
    "seat_typenm": "0",
    "seat_lock": "0",
    "seat_ladyseat": "0",
    "seat_ratetype": null,
    "seat_ratetypevar": null,
    "seat_binalypic": null,
    "seat_remark": "",
    "bustype_var": "FIR",
    "food": null
    },
    {
    "qtimedt": "977646139",
    "seat_name": "10D",
    "seat_dspnm": "-",
    "seat_desnm": "-",
    "seat_srcnm": null,
    "seat_ticket": "0",
    "seat_typeid": "0",
    "seat_typenm": "0",
    "seat_lock": "0",
    "seat_ladyseat": "0",
    "seat_ratetype": null,
    "seat_ratetypevar": null,
    "seat_binalypic": null,
    "seat_remark": "",
    "bustype_var": "FIR",
    "food": null
    },
    {
    "qtimedt": "977646139",
    "seat_name": "1A",
    "seat_dspnm": "ระมัย",
    "seat_desnm": "ขอนแก่น",
    "seat_srcnm": "กรุงเทพสถานีเดินรถนครชัยแอร์",
    "seat_ticket": "54869015",
    "seat_typeid": "6",
    "seat_typenm": "ปกติ",
    "seat_lock": "0",
    "seat_ladyseat": "0",
    "seat_ratetype": "1",
    "seat_ratetypevar": "NORMAL",
    "seat_binalypic": "",
    "seat_remark": " ",
    "bustype_var": "FIR",
    "food": ""
    },
    {
    "qtimedt": "977646139",
    "seat_name": "1C",
    "seat_dspnm": "Miss.Panhathai Sompadung",
    "seat_desnm": "ขอนแก่น",
    "seat_srcnm": "กรุงเทพสถานีเดินรถนครชัยแอร์",
    "seat_ticket": "54881647",
    "seat_typeid": "6",
    "seat_typenm": "ปกติ",
    "seat_lock": "0",
    "seat_ladyseat": "0",
    "seat_ratetype": "1",
    "seat_ratetypevar": "NORMAL",
    "seat_binalypic": "",
    "seat_remark": " ",
    "bustype_var": "FIR",
    "food": ""
    },
    {
    "qtimedt": "977646139",
    "seat_name": "1D",
    "seat_dspnm": "สิทธิพล ชิณแสน",
    "seat_desnm": "ขอนแก่น",
    "seat_srcnm": "กรุงเทพสถานีเดินรถนครชัยแอร์",
    "seat_ticket": "54881648",
    "seat_typeid": "6",
    "seat_typenm": "ปกติ",
    "seat_lock": "0",
    "seat_ladyseat": "0",
    "seat_ratetype": "1",
    "seat_ratetypevar": "NORMAL",
    "seat_binalypic": "",
    "seat_remark": " ",
    "bustype_var": "FIR",
    "food": ""
    },
    {
    "qtimedt": "977646139",
    "seat_name": "2A",
    "seat_dspnm": "-",
    "seat_desnm": "-",
    "seat_srcnm": "กรุงเทพสถานีเดินรถนครชัยแอร์",
    "seat_ticket": "0",
    "seat_typeid": "0",
    "seat_typenm": "0",
    "seat_lock": "0",
    "seat_ladyseat": "0",
    "seat_ratetype": null,
    "seat_ratetypevar": null,
    "seat_binalypic": null,
    "seat_remark": "",
    "bustype_var": "FIR",
    "food": null
    },
    {
    "qtimedt": "977646139",
    "seat_name": "2C",
    "seat_dspnm": "-",
    "seat_desnm": "-",
    "seat_srcnm": "กรุงเทพสถานีเดินรถนครชัยแอร์",
    "seat_ticket": "0",
    "seat_typeid": "0",
    "seat_typenm": "0",
    "seat_lock": "0",
    "seat_ladyseat": "0",
    "seat_ratetype": null,
    "seat_ratetypevar": null,
    "seat_binalypic": null,
    "seat_remark": "",
    "bustype_var": "FIR",
    "food": null
    },
    {
    "qtimedt": "977646139",
    "seat_name": "2D",
    "seat_dspnm": "-",
    "seat_desnm": "-",
    "seat_srcnm": "กรุงเทพสถานีเดินรถนครชัยแอร์",
    "seat_ticket": "0",
    "seat_typeid": "0",
    "seat_typenm": "0",
    "seat_lock": "0",
    "seat_ladyseat": "0",
    "seat_ratetype": null,
    "seat_ratetypevar": null,
    "seat_binalypic": null,
    "seat_remark": "",
    "bustype_var": "FIR",
    "food": null
    },
    {
    "qtimedt": "977646139",
    "seat_name": "3A",
    "seat_dspnm": "Irin Bussarakam",
    "seat_desnm": "ขอนแก่น",
    "seat_srcnm": "กรุงเทพหมอชิต",
    "seat_ticket": "54840572",
    "seat_typeid": "6",
    "seat_typenm": "ปกติ",
    "seat_lock": "0",
    "seat_ladyseat": 1,
    "seat_ratetype": "1",
    "seat_ratetypevar": "NORMAL",
    "seat_binalypic": "",
    "seat_remark": "  กรุงเทพหมอชิต\r\n",
    "bustype_var": "FIR",
    "food": ""
    },
    {
    "qtimedt": "977646139",
    "seat_name": "3C",
    "seat_dspnm": "-",
    "seat_desnm": "-",
    "seat_srcnm": "กรุงเทพหมอชิต",
    "seat_ticket": "0",
    "seat_typeid": "0",
    "seat_typenm": "0",
    "seat_lock": "0",
    "seat_ladyseat": 1,
    "seat_ratetype": null,
    "seat_ratetypevar": null,
    "seat_binalypic": null,
    "seat_remark": "",
    "bustype_var": "FIR",
    "food": null
    },
    {
    "qtimedt": "977646139",
    "seat_name": "3D",
    "seat_dspnm": "Titavee jantarasakha",
    "seat_desnm": "ขอนแก่น",
    "seat_srcnm": "กรุงเทพหมอชิต",
    "seat_ticket": "54840555",
    "seat_typeid": "6",
    "seat_typenm": "ปกติ",
    "seat_lock": "0",
    "seat_ladyseat": 1,
    "seat_ratetype": "1",
    "seat_ratetypevar": "NORMAL",
    "seat_binalypic": "",
    "seat_remark": " ",
    "bustype_var": "FIR",
    "food": ""
    },
    {
    "qtimedt": "977646139",
    "seat_name": "4A",
    "seat_dspnm": "thitiworada",
    "seat_desnm": "ขอนแก่น",
    "seat_srcnm": "กรุงเทพหมอชิต",
    "seat_ticket": "54840573",
    "seat_typeid": "6",
    "seat_typenm": "ปกติ",
    "seat_lock": "0",
    "seat_ladyseat": "0",
    "seat_ratetype": "1",
    "seat_ratetypevar": "NORMAL",
    "seat_binalypic": "",
    "seat_remark": "  กรุงเทพหมอชิต\r\n",
    "bustype_var": "FIR",
    "food": ""
    },
    {
    "qtimedt": "977646139",
    "seat_name": "4C",
    "seat_dspnm": "-",
    "seat_desnm": "-",
    "seat_srcnm": "กรุงเทพหมอชิต",
    "seat_ticket": "0",
    "seat_typeid": "0",
    "seat_typenm": "0",
    "seat_lock": "0",
    "seat_ladyseat": "0",
    "seat_ratetype": null,
    "seat_ratetypevar": null,
    "seat_binalypic": null,
    "seat_remark": "",
    "bustype_var": "FIR",
    "food": null
    },
    {
    "qtimedt": "977646139",
    "seat_name": "4D",
    "seat_dspnm": "-",
    "seat_desnm": "-",
    "seat_srcnm": "กรุงเทพหมอชิต",
    "seat_ticket": "0",
    "seat_typeid": "0",
    "seat_typenm": "0",
    "seat_lock": "0",
    "seat_ladyseat": "0",
    "seat_ratetype": null,
    "seat_ratetypevar": null,
    "seat_binalypic": null,
    "seat_remark": "",
    "bustype_var": "FIR",
    "food": null
    },
    {
    "qtimedt": "977646139",
    "seat_name": "5A",
    "seat_dspnm": "-",
    "seat_desnm": "-",
    "seat_srcnm": "กรุงเทพหมอชิต",
    "seat_ticket": "0",
    "seat_typeid": "0",
    "seat_typenm": "0",
    "seat_lock": "0",
    "seat_ladyseat": "0",
    "seat_ratetype": null,
    "seat_ratetypevar": null,
    "seat_binalypic": null,
    "seat_remark": "",
    "bustype_var": "FIR",
    "food": null
    },
    {
    "qtimedt": "977646139",
    "seat_name": "5C",
    "seat_dspnm": "-",
    "seat_desnm": "-",
    "seat_srcnm": "กรุงเทพหมอชิต",
    "seat_ticket": "0",
    "seat_typeid": "0",
    "seat_typenm": "0",
    "seat_lock": "0",
    "seat_ladyseat": "0",
    "seat_ratetype": null,
    "seat_ratetypevar": null,
    "seat_binalypic": null,
    "seat_remark": "",
    "bustype_var": "FIR",
    "food": null
    },
    {
    "qtimedt": "977646139",
    "seat_name": "5D",
    "seat_dspnm": "-",
    "seat_desnm": "-",
    "seat_srcnm": "กรุงเทพหมอชิต",
    "seat_ticket": "0",
    "seat_typeid": "0",
    "seat_typenm": "0",
    "seat_lock": "0",
    "seat_ladyseat": "0",
    "seat_ratetype": null,
    "seat_ratetypevar": null,
    "seat_binalypic": null,
    "seat_remark": "",
    "bustype_var": "FIR",
    "food": null
    },
    {
    "qtimedt": "977646139",
    "seat_name": "6A",
    "seat_dspnm": "CHONLASAK KANYAYIAM",
    "seat_desnm": "ขอนแก่น",
    "seat_srcnm": "กรุงเทพสถานีเดินรถนครชัยแอร์",
    "seat_ticket": "54882045",
    "seat_typeid": "6",
    "seat_typenm": "ปกติ",
    "seat_lock": "0",
    "seat_ladyseat": "0",
    "seat_ratetype": "1",
    "seat_ratetypevar": "NORMAL",
    "seat_binalypic": "",
    "seat_remark": " ",
    "bustype_var": "FIR",
    "food": ""
    },
    {
    "qtimedt": "977646139",
    "seat_name": "6C",
    "seat_dspnm": "-",
    "seat_desnm": "-",
    "seat_srcnm": "กรุงเทพสถานีเดินรถนครชัยแอร์",
    "seat_ticket": "0",
    "seat_typeid": "0",
    "seat_typenm": "0",
    "seat_lock": "0",
    "seat_ladyseat": "0",
    "seat_ratetype": null,
    "seat_ratetypevar": null,
    "seat_binalypic": null,
    "seat_remark": "",
    "bustype_var": "FIR",
    "food": null
    },
    {
    "qtimedt": "977646139",
    "seat_name": "6D",
    "seat_dspnm": "-",
    "seat_desnm": "-",
    "seat_srcnm": "กรุงเทพสถานีเดินรถนครชัยแอร์",
    "seat_ticket": "0",
    "seat_typeid": "0",
    "seat_typenm": "0",
    "seat_lock": "0",
    "seat_ladyseat": "0",
    "seat_ratetype": null,
    "seat_ratetypevar": null,
    "seat_binalypic": null,
    "seat_remark": "",
    "bustype_var": "FIR",
    "food": null
    },
    {
    "qtimedt": "977646139",
    "seat_name": "7A",
    "seat_dspnm": "นาย วีระพล  แสงเพชร",
    "seat_desnm": "ขอนแก่น",
    "seat_srcnm": "กรุงเทพสถานีเดินรถนครชัยแอร์",
    "seat_ticket": "54705115",
    "seat_typeid": "6",
    "seat_typenm": "ปกติ",
    "seat_lock": "0",
    "seat_ladyseat": "0",
    "seat_ratetype": "1",
    "seat_ratetypevar": "NORMAL",
    "seat_binalypic": "",
    "seat_remark": " ",
    "bustype_var": "FIR",
    "food": ""
    },
    {
    "qtimedt": "977646139",
    "seat_name": "7C",
    "seat_dspnm": "-",
    "seat_desnm": "-",
    "seat_srcnm": "กรุงเทพสถานีเดินรถนครชัยแอร์",
    "seat_ticket": "0",
    "seat_typeid": "0",
    "seat_typenm": "0",
    "seat_lock": "0",
    "seat_ladyseat": "0",
    "seat_ratetype": null,
    "seat_ratetypevar": null,
    "seat_binalypic": null,
    "seat_remark": "",
    "bustype_var": "FIR",
    "food": null
    },
    {
    "qtimedt": "977646139",
    "seat_name": "7D",
    "seat_dspnm": "-",
    "seat_desnm": "-",
    "seat_srcnm": "กรุงเทพสถานีเดินรถนครชัยแอร์",
    "seat_ticket": "0",
    "seat_typeid": "0",
    "seat_typenm": "0",
    "seat_lock": "0",
    "seat_ladyseat": "0",
    "seat_ratetype": null,
    "seat_ratetypevar": null,
    "seat_binalypic": null,
    "seat_remark": "",
    "bustype_var": "FIR",
    "food": null
    },
    {
    "qtimedt": "977646139",
    "seat_name": "8A",
    "seat_dspnm": "พระมหา ประพัฒน์",
    "seat_desnm": "ขอนแก่น",
    "seat_srcnm": "กรุงเทพสถานีเดินรถนครชัยแอร์",
    "seat_ticket": "54882240",
    "seat_typeid": "6",
    "seat_typenm": "ปกติ",
    "seat_lock": "0",
    "seat_ladyseat": "0",
    "seat_ratetype": "3",
    "seat_ratetypevar": "1/2",
    "seat_binalypic": "",
    "seat_remark": "พระภิกษุ ผู้เดินทาง [ภิกษุ สามเณร : 1/2] ",
    "bustype_var": "FIR",
    "food": ""
    },
    {
    "qtimedt": "977646139",
    "seat_name": "8C",
    "seat_dspnm": "-",
    "seat_desnm": "-",
    "seat_srcnm": "กรุงเทพสถานีเดินรถนครชัยแอร์",
    "seat_ticket": "0",
    "seat_typeid": "0",
    "seat_typenm": "0",
    "seat_lock": "0",
    "seat_ladyseat": "0",
    "seat_ratetype": null,
    "seat_ratetypevar": null,
    "seat_binalypic": null,
    "seat_remark": "",
    "bustype_var": "FIR",
    "food": null
    },
    {
    "qtimedt": "977646139",
    "seat_name": "8D",
    "seat_dspnm": "-",
    "seat_desnm": "-",
    "seat_srcnm": "กรุงเทพสถานีเดินรถนครชัยแอร์",
    "seat_ticket": "0",
    "seat_typeid": "0",
    "seat_typenm": "0",
    "seat_lock": "0",
    "seat_ladyseat": "0",
    "seat_ratetype": null,
    "seat_ratetypevar": null,
    "seat_binalypic": null,
    "seat_remark": "",
    "bustype_var": "FIR",
    "food": null
    },
    {
    "qtimedt": "977646139",
    "seat_name": "9A",
    "seat_dspnm": "มุจจรินทร์  มงคล",
    "seat_desnm": "ขอนแก่น",
    "seat_srcnm": "กรุงเทพรังสิต",
    "seat_ticket": "54878520",
    "seat_typeid": "6",
    "seat_typenm": "ปกติ",
    "seat_lock": "0",
    "seat_ladyseat": "0",
    "seat_ratetype": "1",
    "seat_ratetypevar": "NORMAL",
    "seat_binalypic": "",
    "seat_remark": "  กรุงเทพรังสิต\r\n",
    "bustype_var": "FIR",
    "food": ""
    },
    {
    "qtimedt": "977646139",
    "seat_name": "9C",
    "seat_dspnm": "-",
    "seat_desnm": "-",
    "seat_srcnm": "กรุงเทพรังสิต",
    "seat_ticket": "0",
    "seat_typeid": "0",
    "seat_typenm": "0",
    "seat_lock": "0",
    "seat_ladyseat": "0",
    "seat_ratetype": null,
    "seat_ratetypevar": null,
    "seat_binalypic": null,
    "seat_remark": "",
    "bustype_var": "FIR",
    "food": null
    },
    {
    "qtimedt": "977646139",
    "seat_name": "9D",
    "seat_dspnm": "-",
    "seat_desnm": "-",
    "seat_srcnm": "กรุงเทพรังสิต",
    "seat_ticket": "0",
    "seat_typeid": "0",
    "seat_typenm": "0",
    "seat_lock": "0",
    "seat_ladyseat": "0",
    "seat_ratetype": null,
    "seat_ratetypevar": null,
    "seat_binalypic": null,
    "seat_remark": "",
    "bustype_var": "FIR",
    "food": null
    }
    ]